## Interface: 11307
## Title: Prio3
## Notes: Loot notification for Priority Loot system. Can use export from Sahne-Team.de website
## Author: dieck
## Version: 20210421
## SavedVariables: Prio3DB

embeds.xml

prio3.lua

output-enUS.lua
locale-enUS.lua

output-deDE.lua
locale-deDE.lua


iteminfo.lua
priorities.lua
loot.lua
gui.lua
yesno.lua
comms.lua
queries.lua

core.lua

